{
    "description": "",
    "bounds": "12.03,48.5093,18.9954,51.1035",
    "template": "{{#__location__}}{{/__location__}}{{#__teaser__}}{{{nazev_obce}}} {{{okres}}} {{{hlasy_zema}}} {{{hlasy_kniz}}} {{{ucast}}} {{{hlasy}}} {{{pcb_delta}}}{{/__teaser__}}{{#__full__}}{{/__full__}}",
    "minzoom": "7",
    "maxzoom": "13",
    "attribution": "",
    "legend": "",
    "center": "15.1062,49.9512,7",
    "name": "prezvolba",
    "version": "1.0.0"
}